\relax 
\providecommand\hyper@newdestlabel[2]{}
\catcode `:\active 
\catcode `;\active 
\catcode `!\active 
\catcode `?\active 
\providecommand\HyperFirstAtBeginDocument{\AtBeginDocument}
\HyperFirstAtBeginDocument{\ifx\hyper@anchor\@undefined
\global\let\oldcontentsline\contentsline
\gdef\contentsline#1#2#3#4{\oldcontentsline{#1}{#2}{#3}}
\global\let\oldnewlabel\newlabel
\gdef\newlabel#1#2{\newlabelxx{#1}#2}
\gdef\newlabelxx#1#2#3#4#5#6{\oldnewlabel{#1}{{#2}{#3}}}
\AtEndDocument{\ifx\hyper@anchor\@undefined
\let\contentsline\oldcontentsline
\let\newlabel\oldnewlabel
\fi}
\fi}
\global\let\hyper@last\relax 
\gdef\HyperFirstAtBeginDocument#1{#1}
\providecommand\HyField@AuxAddToFields[1]{}
\providecommand\HyField@AuxAddToCoFields[2]{}
\select@language{french}
\@writefile{toc}{\select@language{french}}
\@writefile{lof}{\select@language{french}}
\@writefile{lot}{\select@language{french}}
\@writefile{toc}{\contentsline {section}{\numberline {1}Introduction}{3}{section.1}}
\@writefile{lof}{\contentsline {figure}{\numberline {1}{\ignorespaces  Sch\IeC {\'e}ma global du syst\IeC {\`e}me mis en place.\relax }}{4}{figure.caption.2}}
\providecommand*\caption@xref[2]{\@setref\relax\@undefined{#1}}
\newlabel{Figure 1}{{1}{4}{Schéma global du système mis en place.\relax }{figure.caption.2}{}}
\citation{lxclogo}
\citation{lxclogo}
\citation{LXC-WIKI}
\citation{conteneur-schem}
\citation{conteneur-schem}
\citation{lxc}
\@writefile{toc}{\contentsline {section}{\numberline {2}Logiciels utilis\IeC {\'e}s}{5}{section.2}}
\@writefile{toc}{\contentsline {subsection}{\numberline {2.1}Pr\IeC {\'e}sentation de LXC}{5}{subsection.2.1}}
\@writefile{lof}{\contentsline {figure}{\numberline {2}{\ignorespaces  Logo de LXC. \cite  {lxclogo}\relax }}{5}{figure.caption.3}}
\newlabel{Figure 2}{{2}{5}{Logo de LXC. \cite {lxclogo}\relax }{figure.caption.3}{}}
\@writefile{lof}{\contentsline {figure}{\numberline {3}{\ignorespaces  Sch\IeC {\'e}ma de fonctionnement des conteneurs. \cite  {conteneur-schem}\relax }}{5}{figure.caption.4}}
\newlabel{Figure 3}{{3}{5}{Schéma de fonctionnement des conteneurs. \cite {conteneur-schem}\relax }{figure.caption.4}{}}
\citation{namespace-man}
\citation{cgroup-doc}
\@writefile{toc}{\contentsline {subsubsection}{\numberline {2.1.1}Namespace}{6}{subsubsection.2.1.1}}
\@writefile{toc}{\contentsline {subsubsection}{\numberline {2.1.2}Cgroup}{6}{subsubsection.2.1.2}}
\citation{chroot-man}
\citation{apparmor-ubuntu}
\citation{Seccomp-wiki}
\citation{capabilities}
\@writefile{toc}{\contentsline {subsubsection}{\numberline {2.1.3}chroot}{7}{subsubsection.2.1.3}}
\@writefile{toc}{\contentsline {subsubsection}{\numberline {2.1.4}apparmor}{7}{subsubsection.2.1.4}}
\@writefile{toc}{\contentsline {subsubsection}{\numberline {2.1.5}seccomp}{7}{subsubsection.2.1.5}}
\@writefile{toc}{\contentsline {subsubsection}{\numberline {2.1.6}Kernel Capabilities}{7}{subsubsection.2.1.6}}
\citation{LXD}
\citation{snapd}
\citation{snapd-schem}
\citation{snapd-schem}
\citation{yunohost-front}
\@writefile{toc}{\contentsline {subsection}{\numberline {2.2}Pr\IeC {\'e}sentation de LXD}{8}{subsection.2.2}}
\@writefile{toc}{\contentsline {subsection}{\numberline {2.3}Pr\IeC {\'e}sentation de snapd}{8}{subsection.2.3}}
\@writefile{toc}{\contentsline {subsection}{\numberline {2.4}Pr\IeC {\'e}sentation de YunoHost}{8}{subsection.2.4}}
\@writefile{lof}{\contentsline {figure}{\numberline {5}{\ignorespaces  Logo de Yunohost\relax }}{8}{figure.caption.6}}
\newlabel{Figure 5}{{5}{8}{Logo de Yunohost\relax }{figure.caption.6}{}}
\citation{yunohost}
\@writefile{lof}{\contentsline {figure}{\numberline {4}{\ignorespaces  Sch\IeC {\'e}ma de fonctionnement de snapd. \cite  {snapd-schem}\relax }}{9}{figure.caption.5}}
\newlabel{Figure 4}{{4}{9}{Schéma de fonctionnement de snapd. \cite {snapd-schem}\relax }{figure.caption.5}{}}
\citation{haproxy-logo}
\citation{haproxy-logo}
\@writefile{lof}{\contentsline {figure}{\numberline {6}{\ignorespaces  Interface d'administration de Yunohost.\relax }}{10}{figure.caption.7}}
\newlabel{Figure 6}{{6}{10}{Interface d'administration de Yunohost.\relax }{figure.caption.7}{}}
\@writefile{toc}{\contentsline {subsection}{\numberline {2.5}Pr\IeC {\'e}sentation de HAProxy}{10}{subsection.2.5}}
\@writefile{lof}{\contentsline {figure}{\numberline {7}{\ignorespaces  Logo de HAProxy. \cite  {haproxy-logo}\relax }}{10}{figure.caption.8}}
\newlabel{Figure 7}{{7}{10}{Logo de HAProxy. \cite {haproxy-logo}\relax }{figure.caption.8}{}}
\citation{haproxy-man}
\@writefile{lof}{\contentsline {figure}{\numberline {8}{\ignorespaces  Sch\IeC {\'e}ma de fonctionnement de HAProxy.\relax }}{11}{figure.caption.9}}
\newlabel{Figure 8}{{8}{11}{Schéma de fonctionnement de HAProxy.\relax }{figure.caption.9}{}}
\citation{yunohost_install}
\@writefile{toc}{\contentsline {section}{\numberline {3}Travail r\IeC {\'e}alis\IeC {\'e}}{12}{section.3}}
\@writefile{toc}{\contentsline {subsection}{\numberline {3.1}Probl\IeC {\`e}mes r\IeC {\'e}seaux}{12}{subsection.3.1}}
\@writefile{toc}{\contentsline {subsection}{\numberline {3.2}Installation de YunoHost}{12}{subsection.3.2}}
\@writefile{toc}{\contentsline {subsection}{\numberline {3.3}Les certificats}{12}{subsection.3.3}}
\citation{yunohost-cert}
\citation{avahi}
\@writefile{toc}{\contentsline {subsection}{\numberline {3.4}Le service Avahi}{13}{subsection.3.4}}
\@writefile{toc}{\contentsline {subsection}{\numberline {3.5}Cr\IeC {\'e}ation d'une image LXC personnalis\IeC {\'e}e}{13}{subsection.3.5}}
\@writefile{toc}{\contentsline {subsection}{\numberline {3.6}Environnement de test}{14}{subsection.3.6}}
\@writefile{toc}{\contentsline {subsection}{\numberline {3.7}Reverse-proxy web}{14}{subsection.3.7}}
\citation{haproxy}
\@writefile{toc}{\contentsline {subsection}{\numberline {3.8}Gestion des certificats}{15}{subsection.3.8}}
\@writefile{toc}{\contentsline {subsection}{\numberline {3.9}Recr\IeC {\'e}ation des certificats}{16}{subsection.3.9}}
\@writefile{toc}{\contentsline {subsection}{\numberline {3.10}Script pour le provisionning des conteneurs et la configuration de HAProxy}{17}{subsection.3.10}}
\@writefile{toc}{\contentsline {subsection}{\numberline {3.11}R\IeC {\'e}sum\IeC {\'e} du travail effectu\IeC {\'e}}{19}{subsection.3.11}}
\@writefile{toc}{\contentsline {section}{\numberline {4}Prolongements possibles du projet}{20}{section.4}}
\@writefile{toc}{\contentsline {section}{\numberline {5}Gestion du projet}{21}{section.5}}
\@writefile{toc}{\contentsline {subsection}{\numberline {5.1}Moyens de communication et de partage}{21}{subsection.5.1}}
\@writefile{toc}{\contentsline {subsection}{\numberline {5.2}Diagramme de GANTT}{21}{subsection.5.2}}
\@writefile{toc}{\contentsline {subsection}{\numberline {5.3}R\IeC {\'e}partion des t\IeC {\^a}ches}{22}{subsection.5.3}}
\@writefile{toc}{\contentsline {section}{\numberline {6}Conclusion}{23}{section.6}}
\bibstyle{unsrt}
\bibdata{Rapport}
\bibcite{lxclogo}{1}
\bibcite{LXC-WIKI}{2}
\bibcite{conteneur-schem}{3}
\bibcite{lxc}{4}
\bibcite{namespace-man}{5}
\bibcite{cgroup-doc}{6}
\bibcite{chroot-man}{7}
\bibcite{apparmor-ubuntu}{8}
\bibcite{Seccomp-wiki}{9}
\bibcite{capabilities}{10}
\bibcite{LXD}{11}
\bibcite{snapd}{12}
\bibcite{snapd-schem}{13}
\bibcite{yunohost-front}{14}
\bibcite{yunohost}{15}
\bibcite{haproxy-logo}{16}
\bibcite{haproxy-man}{17}
\bibcite{yunohost_install}{18}
\bibcite{yunohost-cert}{19}
\bibcite{avahi}{20}
\@writefile{toc}{\contentsline {section}{\numberline {7}Bibliographie}{24}{section.7}}
\bibcite{haproxy}{21}
\@writefile{toc}{\contentsline {section}{\numberline {8}Annexe}{26}{section.8}}
\@writefile{toc}{\contentsline {subsection}{\numberline {8.1}Configuration d'HAProxy}{26}{subsection.8.1}}
\@writefile{toc}{\contentsline {subsection}{\numberline {8.2}Script pour le provisionning des conteneurs et la configuration de haproxy}{29}{subsection.8.2}}
\@writefile{toc}{\contentsline {subsection}{\numberline {8.3}Script de recr\IeC {\'e}ation des certificats}{35}{subsection.8.3}}
