\relax 
\providecommand\hyper@newdestlabel[2]{}
\catcode `:\active 
\catcode `;\active 
\catcode `!\active 
\catcode `?\active 
\providecommand\HyperFirstAtBeginDocument{\AtBeginDocument}
\HyperFirstAtBeginDocument{\ifx\hyper@anchor\@undefined
\global\let\oldcontentsline\contentsline
\gdef\contentsline#1#2#3#4{\oldcontentsline{#1}{#2}{#3}}
\global\let\oldnewlabel\newlabel
\gdef\newlabel#1#2{\newlabelxx{#1}#2}
\gdef\newlabelxx#1#2#3#4#5#6{\oldnewlabel{#1}{{#2}{#3}}}
\AtEndDocument{\ifx\hyper@anchor\@undefined
\let\contentsline\oldcontentsline
\let\newlabel\oldnewlabel
\fi}
\fi}
\global\let\hyper@last\relax 
\gdef\HyperFirstAtBeginDocument#1{#1}
\providecommand\HyField@AuxAddToFields[1]{}
\providecommand\HyField@AuxAddToCoFields[2]{}
\select@language{french}
\@writefile{toc}{\select@language{french}}
\@writefile{lof}{\select@language{french}}
\@writefile{lot}{\select@language{french}}
\@writefile{toc}{\contentsline {section}{\numberline {1}Introduction}{3}{section.1}}
\@writefile{toc}{\contentsline {subsection}{\numberline {1.1}Probl\IeC {\'e}matique et Contexte}{3}{subsection.1.1}}
\@writefile{lof}{\contentsline {figure}{\numberline {1}{\ignorespaces  Sch\IeC {\'e}ma global du syst\IeC {\`e}me mis en place.\relax }}{4}{figure.caption.2}}
\providecommand*\caption@xref[2]{\@setref\relax\@undefined{#1}}
\newlabel{Figure 1}{{1}{4}{Schéma global du système mis en place.\relax }{figure.caption.2}{}}
\citation{lxclogo}
\citation{lxclogo}
\citation{LXC-WIKI}
\citation{conteneur-schem}
\citation{conteneur-schem}
\@writefile{toc}{\contentsline {section}{\numberline {2}LXC}{5}{section.2}}
\@writefile{toc}{\contentsline {subsection}{\numberline {2.1}Introduction \IeC {\`a} LXC}{5}{subsection.2.1}}
\@writefile{lof}{\contentsline {figure}{\numberline {2}{\ignorespaces  Logo de LXC. \cite  {lxclogo}\relax }}{5}{figure.caption.3}}
\newlabel{Figure 2}{{2}{5}{Logo de LXC. \cite {lxclogo}\relax }{figure.caption.3}{}}
\@writefile{lof}{\contentsline {figure}{\numberline {3}{\ignorespaces  Sch\IeC {\'e}ma de fonctionnement des conteneurs. \cite  {conteneur-schem}\relax }}{5}{figure.caption.4}}
\newlabel{Figure 3}{{3}{5}{Schéma de fonctionnement des conteneurs. \cite {conteneur-schem}\relax }{figure.caption.4}{}}
\citation{lxc}
\citation{namespace-man}
\@writefile{toc}{\contentsline {subsection}{\numberline {2.2}Fonctionnement de LXC}{6}{subsection.2.2}}
\@writefile{toc}{\contentsline {subsubsection}{\numberline {2.2.1}Namespace}{6}{subsubsection.2.2.1}}
\@writefile{toc}{\contentsline {subsubsection}{\numberline {2.2.2}Cgroup}{6}{subsubsection.2.2.2}}
\citation{cgroup-doc}
\citation{chroot-man}
\citation{apparmor-ubuntu}
\citation{Seccomp-wiki}
\@writefile{toc}{\contentsline {subsubsection}{\numberline {2.2.3}chroot}{7}{subsubsection.2.2.3}}
\@writefile{toc}{\contentsline {subsubsection}{\numberline {2.2.4}apparmor}{7}{subsubsection.2.2.4}}
\@writefile{toc}{\contentsline {subsubsection}{\numberline {2.2.5}seccomp}{7}{subsubsection.2.2.5}}
\citation{capabilities}
\citation{LXD}
\citation{snapd}
\citation{snapd-schem}
\citation{snapd-schem}
\@writefile{toc}{\contentsline {subsubsection}{\numberline {2.2.6}Kernel Capabilities}{8}{subsubsection.2.2.6}}
\@writefile{toc}{\contentsline {subsection}{\numberline {2.3}Probl\IeC {\`e}mes r\IeC {\'e}seaux}{8}{subsection.2.3}}
\@writefile{toc}{\contentsline {subsubsection}{\numberline {2.3.1}Fonctionnement de LXD}{8}{subsubsection.2.3.1}}
\@writefile{toc}{\contentsline {subsubsection}{\numberline {2.3.2}Installation de LXD}{8}{subsubsection.2.3.2}}
\@writefile{lof}{\contentsline {figure}{\numberline {4}{\ignorespaces  Sch\IeC {\'e}ma de fonctionnement de snapd. \cite  {snapd-schem}\relax }}{9}{figure.caption.5}}
\newlabel{Figure 4}{{4}{9}{Schéma de fonctionnement de snapd. \cite {snapd-schem}\relax }{figure.caption.5}{}}
\citation{yunohost-front}
\citation{yunohost}
\@writefile{toc}{\contentsline {section}{\numberline {3}Yunohost}{10}{section.3}}
\@writefile{toc}{\contentsline {subsection}{\numberline {3.1}Introduction \IeC {\`a} Yunohost}{10}{subsection.3.1}}
\@writefile{lof}{\contentsline {figure}{\numberline {5}{\ignorespaces  Logo de Yunohost\relax }}{10}{figure.caption.6}}
\newlabel{Figure 5}{{5}{10}{Logo de Yunohost\relax }{figure.caption.6}{}}
\citation{yunohost_install}
\citation{avahi}
\@writefile{lof}{\contentsline {figure}{\numberline {6}{\ignorespaces  Interface d'administration de Yunohost.\relax }}{11}{figure.caption.7}}
\newlabel{Figure 6}{{6}{11}{Interface d'administration de Yunohost.\relax }{figure.caption.7}{}}
\@writefile{toc}{\contentsline {subsection}{\numberline {3.2}Installation de Yunohost}{11}{subsection.3.2}}
\@writefile{toc}{\contentsline {subsection}{\numberline {3.3}Le service Avahi}{11}{subsection.3.3}}
\citation{yunohost-cert}
\@writefile{toc}{\contentsline {subsection}{\numberline {3.4}Les certificats}{12}{subsection.3.4}}
\citation{haproxy-logo}
\citation{haproxy-logo}
\citation{haproxy-man}
\@writefile{toc}{\contentsline {section}{\numberline {4}HAProxy}{13}{section.4}}
\@writefile{lof}{\contentsline {figure}{\numberline {7}{\ignorespaces  Logo de HAProxy. \cite  {haproxy-logo}\relax }}{13}{figure.caption.8}}
\newlabel{Figure 7}{{7}{13}{Logo de HAProxy. \cite {haproxy-logo}\relax }{figure.caption.8}{}}
\@writefile{toc}{\contentsline {subsection}{\numberline {4.1}Pr\IeC {\'e}sentation d'HAProxy}{13}{subsection.4.1}}
\@writefile{toc}{\contentsline {subsection}{\numberline {4.2}Reverse-proxy web}{13}{subsection.4.2}}
\@writefile{lof}{\contentsline {figure}{\numberline {8}{\ignorespaces  Sch\IeC {\'e}ma de fonctionnement de HAProxy.\relax }}{14}{figure.caption.9}}
\newlabel{Figure 8}{{8}{14}{Schéma de fonctionnement de HAProxy.\relax }{figure.caption.9}{}}
\citation{haproxy}
\@writefile{toc}{\contentsline {subsection}{\numberline {4.3}Gestion des certificats}{15}{subsection.4.3}}
\@writefile{toc}{\contentsline {section}{\numberline {5}Travail r\IeC {\'e}alis\IeC {\'e}}{16}{section.5}}
\@writefile{toc}{\contentsline {subsection}{\numberline {5.1}Les templates}{16}{subsection.5.1}}
\@writefile{toc}{\contentsline {subsection}{\numberline {5.2}Environnement de test}{16}{subsection.5.2}}
\@writefile{toc}{\contentsline {subsection}{\numberline {5.3}Le script}{17}{subsection.5.3}}
\@writefile{toc}{\contentsline {subsection}{\numberline {5.4}Recr\IeC {\'e}ation des certificats}{19}{subsection.5.4}}
\@writefile{toc}{\contentsline {subsection}{\numberline {5.5}R\IeC {\'e}sum\IeC {\'e} du travail effectu\IeC {\'e}}{19}{subsection.5.5}}
\@writefile{toc}{\contentsline {section}{\numberline {6}Prolongement}{21}{section.6}}
\@writefile{toc}{\contentsline {section}{\numberline {7}Planification}{22}{section.7}}
\@writefile{toc}{\contentsline {subsection}{\numberline {7.1}Moyens de communication et de partage}{22}{subsection.7.1}}
\@writefile{toc}{\contentsline {subsection}{\numberline {7.2}Diagramme de GANTT}{22}{subsection.7.2}}
\@writefile{toc}{\contentsline {subsection}{\numberline {7.3}R\IeC {\'e}partion des t\IeC {\^a}ches}{22}{subsection.7.3}}
\@writefile{toc}{\contentsline {section}{\numberline {8}Conclusion}{24}{section.8}}
\bibstyle{unsrt}
\bibdata{Rapport}
\bibcite{lxclogo}{1}
\bibcite{LXC-WIKI}{2}
\bibcite{conteneur-schem}{3}
\bibcite{lxc}{4}
\bibcite{namespace-man}{5}
\bibcite{cgroup-doc}{6}
\bibcite{chroot-man}{7}
\bibcite{apparmor-ubuntu}{8}
\bibcite{Seccomp-wiki}{9}
\bibcite{capabilities}{10}
\bibcite{LXD}{11}
\bibcite{snapd}{12}
\bibcite{snapd-schem}{13}
\bibcite{yunohost-front}{14}
\bibcite{yunohost}{15}
\bibcite{yunohost_install}{16}
\bibcite{avahi}{17}
\bibcite{yunohost-cert}{18}
\bibcite{haproxy-logo}{19}
\bibcite{haproxy-man}{20}
\@writefile{toc}{\contentsline {section}{\numberline {9}Bibliographie}{25}{section.9}}
\bibcite{haproxy}{21}
\@writefile{toc}{\contentsline {section}{\numberline {10}Annexe}{26}{section.10}}
\@writefile{toc}{\contentsline {subsection}{\numberline {10.1}Configuration d'HAProxy}{26}{subsection.10.1}}
\@writefile{toc}{\contentsline {subsection}{\numberline {10.2}Script de cr\IeC {\'e}ation de conteneur}{27}{subsection.10.2}}
\@writefile{toc}{\contentsline {subsection}{\numberline {10.3}Script de recr\IeC {\'e}ation de certificat}{28}{subsection.10.3}}
